<?xml version="1.0" encoding="UTF-8" standalone="no"?>
<!-- Created with Inkscape (http://www.inkscape.org/) -->

<svg
   xmlns:dc="http://purl.org/dc/elements/1.1/"
   xmlns:cc="http://creativecommons.org/ns#"
   xmlns:rdf="http://www.w3.org/1999/02/22-rdf-syntax-ns#"
   xmlns:svg="http://www.w3.org/2000/svg"
   xmlns="http://www.w3.org/2000/svg"
   xmlns:sodipodi="http://sodipodi.sourceforge.net/DTD/sodipodi-0.dtd"
   xmlns:inkscape="http://www.inkscape.org/namespaces/inkscape"
   width="274.02734mm"
   height="63.39962mm"
   viewBox="0 0 274.02734 63.39962"
   version="1.1"
   id="SVGRoot"
   inkscape:version="0.92.3 (2405546, 2018-03-11)"
   sodipodi:docname="logo_small.svg">
  <sodipodi:namedview
     id="base"
     pagecolor="#ffffff"
     bordercolor="#666666"
     borderopacity="1.0"
     inkscape:pageopacity="0.0"
     inkscape:pageshadow="2"
     inkscape:zoom="0.35"
     inkscape:cx="-28.036074"
     inkscape:cy="133.80356"
     inkscape:document-units="mm"
     inkscape:current-layer="layer1"
     showgrid="false"
     inkscape:window-width="956"
     inkscape:window-height="1016"
     inkscape:window-x="960"
     inkscape:window-y="43"
     inkscape:window-maximized="0"
     fit-margin-top="0"
     fit-margin-left="0"
     fit-margin-right="0"
     fit-margin-bottom="0" />
  <defs
     id="defs23758" />
  <metadata
     id="metadata23761">
    <rdf:RDF>
      <cc:Work
         rdf:about="">
        <dc:format>image/svg+xml</dc:format>
        <dc:type
           rdf:resource="http://purl.org/dc/dcmitype/StillImage" />
        <dc:title />
      </cc:Work>
    </rdf:RDF>
  </metadata>
  <g
     id="layer1"
     inkscape:groupmode="layer"
     inkscape:label="Layer 1"
     transform="translate(-11.90895,-77.002571)">
    <g
       transform="translate(488.19944,-54.603879)"
       id="g33301"
       style="display:inline;opacity:1;fill:#006ac3;fill-opacity:1">
      <path
         sodipodi:nodetypes="cccccccccssccsscccscccccccccscsccssccscccccccccccccccccccccccccccccsccccscccscscccscccsccssscsscccscccsccccscccscccsccccsscccccsscccssccscssccsccccccccscscccscccscsccccsscscccsccccssccccscscscs"
         inkscape:connector-curvature="0"
         id="path33299"
         d="m -338.26451,131.60645 -10.97031,10.00443 v 37.54597 l 23.92717,15.84922 -12.95686,-23.56898 z m -43.32277,3.48364 -5.27018,0.88911 v 42.29087 c 1.10067,0.33867 2.56074,0.67723 4.38105,1.01589 1.82036,0.33867 3.8949,0.50822 6.22324,0.50822 2.11666,0 4.04272,-0.36016 5.77839,-1.07983 1.73567,-0.71966 3.21733,-1.73533 4.445,-3.04767 1.22767,-1.35466 2.18017,-2.98482 2.8575,-4.88982 0.67733,-1.905 1.01587,-4.04272 1.01587,-6.41339 0,-2.286 -0.29588,-4.36 -0.88855,-6.22267 -0.55033,-1.905 -1.37594,-3.53516 -2.47661,-4.88983 -1.05833,-1.35466 -2.37098,-2.41299 -3.93734,-3.17499 -1.56631,-0.762 -3.34388,-1.14267 -5.33355,-1.14267 -1.48167,0 -2.83644,0.21166 -4.06411,0.635 -1.18533,0.381 -2.09571,0.76167 -2.73071,1.14267 z m 63.5,0 -5.27018,0.88911 v 43.11659 h 5.27018 V 154.6483 c 0.46567,-0.21166 1.2065,-0.42333 2.2225,-0.635 1.05833,-0.254 2.13773,-0.38144 3.23837,-0.38144 2.62469,0 4.44545,0.76244 5.46145,2.28644 1.016,1.48167 1.52355,4.04273 1.52355,7.68339 v 15.4941 h 5.20734 v -16.63732 c 0,-1.98966 -0.1906,-3.80989 -0.5716,-5.46089 -0.381,-1.651 -1.016,-3.06894 -1.905,-4.25428 -0.889,-1.18533 -2.09529,-2.09571 -3.61929,-2.73071 -1.48167,-0.67734 -3.34455,-1.01589 -5.58821,-1.01589 -1.016,0 -2.05328,0.10583 -3.11161,0.3175 -1.05833,0.16933 -2.01083,0.42311 -2.8575,0.76178 z m 95.24999,0 -5.27017,0.88911 v 43.11659 h 5.27017 v -14.16071 c 1.05834,0.71967 2.24356,1.60845 3.55589,2.66678 1.35467,1.05834 2.68839,2.2225 4.00072,3.4925 1.35467,1.27 2.62467,2.60371 3.81,4.00071 1.18534,1.35467 2.17995,2.68839 2.98428,4.00072 h 6.22324 c -0.762,-1.31233 -1.77823,-2.73083 -3.04823,-4.25483 -1.27,-1.56632 -2.62423,-3.0901 -4.06357,-4.57177 -1.397,-1.48166 -2.81549,-2.8575 -4.25483,-4.1275 -1.43933,-1.31233 -2.73039,-2.39172 -3.87339,-3.23839 2.45534,-2.11666 4.95322,-4.31811 7.49322,-6.60411 2.58233,-2.286 4.78324,-4.5085 6.60357,-6.66749 h -6.15929 c -1.86266,2.15899 -3.95827,4.2546 -6.28661,6.2866 -2.32833,1.98967 -4.65666,4.0005 -6.985,6.0325 z m -243.13445,3.07683 -10.31875,10.44285 v 35.05688 l 36.83608,11.25675 -26.51733,-20.49125 z m 185.54017,10.76639 c -1.905,0 -3.70416,0.12689 -5.3975,0.38089 -1.651,0.254 -2.83622,0.55044 -3.55589,0.88911 l 0.635,4.31766 c 0.71967,-0.254 1.75641,-0.50778 3.11105,-0.76178 1.35469,-0.254 2.94219,-0.38089 4.7625,-0.38089 1.43936,0 2.6035,0.21167 3.4925,0.635 0.93136,0.381 1.65113,0.91017 2.15913,1.5875 0.55033,0.67734 0.91049,1.43923 1.07982,2.28589 0.21167,0.80434 0.3175,1.651 0.3175,2.54 v 1.46017 c -1.98967,-0.46566 -4.02209,-0.69839 -6.09645,-0.69839 -1.524,0 -3.04776,0.16956 -4.57176,0.50822 -1.48167,0.29634 -2.81538,0.80445 -4.00074,1.52411 -1.143,0.71967 -2.0955,1.67217 -2.8575,2.8575 -0.71964,1.143 -1.07926,2.56095 -1.07926,4.25428 0,1.905 0.35962,3.47144 1.07926,4.6991 0.71969,1.22767 1.67219,2.20123 2.8575,2.92089 1.18536,0.67734 2.54013,1.14278 4.06413,1.39678 1.524,0.29634 3.09044,0.44483 4.69911,0.44483 2.11666,0 4.16962,-0.14849 6.15926,-0.44483 2.032,-0.29633 3.66218,-0.55011 4.88984,-0.76178 v -18.41499 c 0,-1.651 -0.1906,-3.17478 -0.5716,-4.57178 -0.381,-1.397 -1.03706,-2.58277 -1.9684,-3.55644 -0.93133,-0.97366 -2.15921,-1.73555 -3.68321,-2.28588 -1.48167,-0.55034 -3.32295,-0.82517 -5.52429,-0.82517 z m 35.43267,0 c -2.24366,0 -4.36033,0.3175 -6.35,0.9525 -1.94733,0.59266 -3.66172,1.52356 -5.14339,2.79355 -1.48166,1.27 -2.64583,2.87911 -3.4925,4.82644 -0.84666,1.94734 -1.27,4.25406 -1.27,6.92106 0,2.54 0.38122,4.78411 1.14322,6.73144 0.80434,1.905 1.90478,3.49249 3.30178,4.76249 1.43934,1.27 3.13267,2.24356 5.08,2.92089 1.98967,0.635 4.17006,0.9525 6.54072,0.9525 1.778,0 3.42867,-0.12689 4.95267,-0.38089 1.524,-0.21166 3.02728,-0.59288 4.50894,-1.14322 l -0.76233,-4.38161 c -1.48166,0.508 -2.8575,0.84656 -4.1275,1.01589 -1.22766,0.127 -2.51872,0.19072 -3.87339,0.19072 -1.69333,0 -3.23872,-0.21166 -4.63572,-0.635 -1.397,-0.42333 -2.60328,-1.05833 -3.61928,-1.90499 -0.97366,-0.889 -1.73555,-1.98944 -2.28589,-3.30178 -0.55033,-1.35466 -0.82572,-2.96377 -0.82572,-4.82644 0,-1.94733 0.29645,-3.598 0.88911,-4.95267 0.59267,-1.397 1.37562,-2.51905 2.34928,-3.36572 1.016,-0.889 2.20178,-1.524 3.55644,-1.905 1.35467,-0.42333 2.79367,-0.635 4.31767,-0.635 1.18534,0 2.3495,0.0848 3.4925,0.25411 1.18534,0.127 2.47639,0.4445 3.87339,0.9525 l 1.20661,-4.50838 c -1.60866,-0.508 -3.13244,-0.84656 -4.57178,-1.01589 -1.397,-0.21167 -2.81549,-0.3175 -4.25483,-0.3175 z m -163.00427,0.0634 c -2.32834,0 -4.40288,0.169 -6.22324,0.50767 -1.778,0.33866 -3.23805,0.67777 -4.38105,1.01644 v 39.05248 h 5.27018 v -11.62072 c 0.59267,0.46567 1.48199,0.889 2.66732,1.27 1.18533,0.381 2.56117,0.57161 4.1275,0.57161 1.98967,0 3.76724,-0.38122 5.33355,-1.14322 1.56636,-0.762 2.87901,-1.82033 3.93734,-3.175 1.10067,-1.35466 1.92628,-2.96321 2.47661,-4.82588 0.59267,-1.905 0.88855,-3.97955 0.88855,-6.22322 0,-2.37066 -0.33854,-4.50839 -1.01587,-6.41339 -0.67733,-1.905 -1.62983,-3.51355 -2.8575,-4.82589 -1.22767,-1.35466 -2.70933,-2.39194 -4.445,-3.1116 -1.73567,-0.71967 -3.66173,-1.07928 -5.77839,-1.07928 z m -42.545,0.635 v 16.57338 c 0,1.98967 0.1906,3.80989 0.5716,5.46089 0.381,1.651 1.03706,3.09055 1.9684,4.31821 0.93133,1.18534 2.13762,2.11678 3.61926,2.79411 1.48169,0.635 3.34457,0.9525 5.58824,0.9525 2.54,0 4.74144,-0.16955 6.6041,-0.50822 1.905,-0.33866 3.42879,-0.65616 4.57179,-0.9525 v -28.63837 h -5.27018 v 24.89176 c -0.127,0.0423 -0.38132,0.10606 -0.76232,0.19072 -0.381,0.0423 -0.82539,0.10551 -1.33339,0.19017 -0.508,0.0423 -1.05823,0.085 -1.6509,0.12733 -0.55033,0.0423 -1.10056,0.0634 -1.65089,0.0634 -2.54,0 -4.36076,-0.76189 -5.46145,-2.28588 -1.05831,-1.524 -1.5875,-4.10666 -1.5875,-7.74733 v -15.43016 h -5.20676 z m 75.12071,3.93677 c 1.397,0 2.58223,0.27539 3.55589,0.82572 1.016,0.55034 1.84161,1.31223 2.47661,2.28589 0.635,0.93134 1.10045,2.07445 1.39679,3.42911 0.29633,1.31234 0.44426,2.73028 0.44426,4.25428 0,3.59834 -0.82505,6.30789 -2.47605,8.12822 -1.651,1.77799 -3.93721,2.66677 -6.85821,2.66677 -0.71967,0 -1.48156,-0.0421 -2.2859,-0.12678 -0.80433,-0.127 -1.60888,-0.29655 -2.41321,-0.50822 v -18.6691 c 0.59267,-0.55033 1.46037,-1.05789 2.60337,-1.52356 1.143,-0.508 2.32878,-0.76233 3.55645,-0.76233 z m -32.57571,0.0634 c 2.58233,0 4.67794,0.9525 6.2866,2.8575 1.60867,1.86267 2.41266,4.5085 2.41266,7.9375 0,1.524 -0.14793,2.9425 -0.44426,4.25483 -0.29634,1.27 -0.76179,2.39151 -1.39679,3.36517 -0.635,0.93134 -1.46061,1.67216 -2.47661,2.22249 -0.97366,0.55034 -2.15889,0.82572 -3.55589,0.82572 -1.22767,0 -2.41345,-0.23272 -3.55645,-0.69839 -1.143,-0.46566 -2.0107,-0.97377 -2.60337,-1.5241 v -18.60572 c 0.46567,-0.16933 1.10067,-0.31728 1.905,-0.44428 0.84667,-0.127 1.98977,-0.19072 3.42911,-0.19072 z m 128.71426,11.81144 c 1.05836,0 2.05351,0.0632 2.98484,0.19017 0.97367,0.127 1.79928,0.29656 2.47661,0.50822 v 8.76266 c -0.67733,0.127 -1.54559,0.23284 -2.60395,0.3175 -1.016,0.0847 -2.18014,0.12733 -3.4925,0.12733 -2.20131,0 -3.95782,-0.36016 -5.27016,-1.07983 -1.27,-0.762 -1.905,-2.09516 -1.905,-4.00016 0,-0.93133 0.23273,-1.69322 0.6984,-2.28589 0.46566,-0.635 1.05854,-1.14311 1.77821,-1.52411 0.71967,-0.381 1.54474,-0.63533 2.47605,-0.76233 0.93136,-0.16933 1.88386,-0.25356 2.8575,-0.25356 z"
         style="font-style:normal;font-variant:normal;font-weight:normal;font-stretch:normal;font-size:63.5px;line-height:125%;font-family:'Ubuntu Mono';-inkscape-font-specification:'Ubuntu Mono, Normal';text-align:start;letter-spacing:0px;word-spacing:0px;writing-mode:lr-tb;text-anchor:start;fill:#006ac3;fill-opacity:1;stroke:none;stroke-width:1px;stroke-linecap:butt;stroke-linejoin:miter;stroke-opacity:1" />
    </g>
  </g>
</svg>
